{
  "token": "token",
  "mailGuildId": "419517982541217792",
  "mainGuildId": "419517982541217792",
  "logChannelId": "502930037922856972",
  "status": "MP moi pour de l'aide!",
  "responseMessage": "Merci pour votre message, le staff du serveur va vous répondre aussi vite que possible.",
  "closeMessage": "Cette conversation à été fermée, si vous avez d'autres questions, n'hésitez pas à les poser !",
  "alwaysReply": "true",
  "alwaysReplyAnon": "true",
  "useNicknames": "false",
  "ignoreAccidentalThreads": "true",
  "enableGreeting": "true",
  "greetingMessage": "Bienvenue dans le serveur **Discord France** ! Merci de lire le règlement pour accéder à tout le serveur. Le staff espère que vous passerez un bon moment parmis nous !",
  "greetingAttachment": "None",
  "port": "manageMessages",
  "url": "none",
  "snippetPrefix": "!!",
  "inboxServerPermission": "manageMessages",
  "newThreadCategoryId": "502929929202040863",
  "relaySmallAttachmentsAsAttachments": "true",
  "smallAttachmentLimit": "2097152",
  "threadTimestamps": "false",
  "typingProxy": "true",
  "typingProxyReverse": "true",
  "mentionRole": "here",
  "pingOnBotMention": "false",
  "requiredAccountAge": "24h",
  "accountAgeDeniedMessage": "Votre compte Discord doit être âgé d'au moins 24 heures pour être utilisé",
  "allowMove": "true",
  "botMentionResponse": "<:WaveBoy:489844482045378610>",
  "mentionUserInThreadHeader": "true",
  "snippetPrefixAnon": "!"
}
